{"meta": {"limit": 1, "next": "/api/v1/caseversion/?case=1493&case__suites=116&limit=1&format=json&offset=1", "offset": 0, "previous": null, "total_count": 8}, "objects": [{"case": "/api/v1/case/1493/", "description": "As a user I want the ability to select \"Do Not Track\" settings between \"Do not track my actions\"", "environments": [{"elements": ["/api/v1/element/32/"], "id": "161", "profile": "/api/v1/profile/8/", "resource_uri": "/api/v1/environment/161/"}, {"elements": ["/api/v1/element/43/"], "id": "202", "profile": null, "resource_uri": "/api/v1/environment/202/"}, {"elements": ["/api/v1/element/45/"], "id": "203", "profile": null, "resource_uri": "/api/v1/environment/203/"}, {"elements": ["/api/v1/element/50/"], "id": "296", "profile": null, "resource_uri": "/api/v1/environment/296/"}], "id": "6575", "name": "[Settings] Security & Privacy - Do Not Track - Do not track", "productversion": "/api/v1/productversion/35/", "resource_uri": "/api/v1/caseversion/6575/", "status": "active", "steps": [{"caseversion": "/api/v1/caseversion/6575/", "expected": "The Settings menu appear and You are able to scroll the menu to the Security & Privacy section.", "id": "19784", "instruction": "Select settings and scroll to the Security & Privacy section.", "number": 1, "resource_uri": "/api/v1/casestep/19784/"}, {"caseversion": "/api/v1/caseversion/6575/", "expected": "The \"Do Not Track\" menu is displayed and you can select \"Do not track\" option.", "id": "28166", "instruction": "Open  \"Do Not Track\"  menu and  select \"Do not track\" option.\r\n", "number": 2, "resource_uri": "/api/v1/casestep/28166/"}, {"caseversion": "/api/v1/caseversion/6575/", "expected": "Then Verify that Do not track status is ON.", "id": "28167", "instruction": "Go to dnt.mozilla.org. \r\n", "number": 3, "resource_uri": "/api/v1/casestep/28167/"}], "tags": [{"description": "", "id": "235", "name": "b2g", "product": "/api/v1/product/16/", "resource_uri": "/api/v1/tag/235/"}, {"description": "", "id": "236", "name": "gaia", "product": "/api/v1/product/16/", "resource_uri": "/api/v1/tag/236/"}, {"description": "", "id": "237", "name": "settings", "product": "/api/v1/product/16/", "resource_uri": "/api/v1/tag/237/"}, {"description": "", "id": "520", "name": "set-219", "product": "/api/v1/product/16/", "resource_uri": "/api/v1/tag/520/"}]}]}